{
    "G101": {
        "pattern": "(?i)passwd|pass|password|pwd|secret|private_key|token|weird",
    	"ignore_entropy": false,
         "entropy_threshold": "80.0",
         "per_char_threshold": "3.0",
         "truncate": "32"
    }
}
